            `^S&&o^`             
         :1KQgOKKOgQOJ:          
     '/EBNdKOOKDDKOOKdNBkL'      
 `>eNBDKKOKdN#P\\X#NHKOKKD#Ne?-  
NQ&OKKKOgQO{:      :JOQgOKOOO&QN 
@KOOHQ8y^`            `;jRQHOOK@`
@KOOg8                    OgOOK@`
@KOOgR                    OgOOK@`
@KOOgR                    OgOOK@`
@KOOgR                    OgOOK@`
@KOOgR                    OgOOK@`
@KOOgR                    OgOOK@`
@KOOgR                    OgOOK@`
@KOOgR                    OgOOK@`
@KOOgR             ``     OgOOK@`
@KOOgR             |@KL'  OgOOK@`
@KOO&Q^`           |@NQQNjQ&OOK@`
@OKOOOgQOx:        \@QQQQgOKOOO@`
^ogBDKOOKdNB6i,  '/RQNdKKKKDBgar 
   '/EBNdKKOKDBggBDKOKKdNBk/'    
       :zKQgOKOOOOKOgQQQU        
          `;jDQ88QQQHmeRZ        
              .||':]dg6Ra        
                     -\6]        
